…
### top_sentiments

Retrieve the top 10 positive and negative words. Specify plot = TRUE and
a simple bar chart of the words will be created, otherwise you get a
dataframe of results.

``` r
top_Sentiments(word_vec = brexit$content, plot = F)
#> Joining, by = "word"
#> Joining, by = "word"
#> # A tibble: 52 x 3
#> # Groups:   sentiment [2]
#>    word        sentiment     n
#>    <chr>       <chr>     <int>
#>  1 delays      negative      3
#>  2 slow        negative      3
#>  3 slump       negative      3
#>  4 burning     negative      2
#>  5 proprietary negative      2
#>  6 protests    negative      2
#>  7 anger       negative      1
#>  8 bleak       negative      1
#>  9 casualty    negative      1
#> 10 cold        negative      1
#> # ... with 42 more rows
```
…
